id,course_id,batch_id,capacity,create_uid,write_uid,name,code,active,create_date,write_date
11,,,20,2,2,R001,R001,t,2024-04-24 09:25:16.998203,2024-04-24 09:25:16.998203
12,,,30,2,2,R002,R002,t,2024-04-24 09:25:16.998203,2024-04-24 09:25:16.998203
13,,,30,2,2,R003,R003,t,2024-04-24 09:25:16.998203,2024-04-24 09:25:16.998203
14,,,25,2,2,R004,R004,t,2024-04-24 09:25:16.998203,2024-04-24 09:25:16.998203
